{
  "project_info": {
    "project_number": "215953787376",
    "firebase_url": "https://todo-app-529a1.firebaseio.com",
    "project_id": "todo-app-529a1",
    "storage_bucket": "todo-app-529a1.appspot.com"
  },
  "client": [
    {
      "client_info": {
        "mobilesdk_app_id": "1:215953787376:android:1756c86e7ac4d1a5",
        "android_client_info": {
          "package_name": "com.example.todoapp"
        }
      },
      "oauth_client": [
        {
          "client_id": "215953787376-p6l4e6j2ku2bdksorq78h0471a51jlsq.apps.googleusercontent.com",
          "client_type": 3
        }
      ],
      "api_key": [
        {
          "current_key": "AIzaSyDy0Q9RyIM7ivz5yoEpk4M4w3chvB8A4xk"
        }
      ],
      "services": {
        "appinvite_service": {
          "other_platform_oauth_client": [
            {
              "client_id": "215953787376-p6l4e6j2ku2bdksorq78h0471a51jlsq.apps.googleusercontent.com",
              "client_type": 3
            }
          ]
        }
      }
    }
  ],
  "configuration_version": "1"
}